function_test
…
?calculate_DRG_stats

calculate_DRG_stats(drg_data, "mean")

# A tibble: 100 × 2
   `DRG Definition`                                                  stat
   <chr>                                                            <dbl>
 1 039 - EXTRACRANIAL PROCEDURES W/O CC/MCC                         5556.
 2 057 - DEGENERATIVE NERVOUS SYSTEM DISORDERS W/O MCC              5702.
 3 064 - INTRACRANIAL HEMORRHAGE OR CEREBRAL INFARCTION W MCC      12113.
 4 065 - INTRACRANIAL HEMORRHAGE OR CEREBRAL INFARCTION W CC        6782.
 5 066 - INTRACRANIAL HEMORRHAGE OR CEREBRAL INFARCTION W/O CC/MCC  4469.
 6 069 - TRANSIENT ISCHEMIA                                         3952.
 7 074 - CRANIAL & PERIPHERAL NERVE DISORDERS W/O MCC               5239.
 8 101 - SEIZURES W/O MCC                                           4453.
 9 149 - DYSEQUILIBRIUM                                             3441.
10 176 - PULMONARY EMBOLISM W/O MCC                                 6078.
# ℹ 90 more rows
